…
set.seed(1234)
        NAll <- nrow(Q3centered %>% gather(Return, Returns, -date))

Q3centered <- bind_cols(
          Q3centered %>% gather(Tickers, Return, -date),
          Q3centered %>% gather(Tickers, Return, -date) %>%
            mutate(Dens = list(density(Return, na.rm=T))) %>%
            summarise(Random_Draws = list(sample(Dens[[1]]$x, NAll, replace = TRUE, prob=.$Dens[[1]]$y))) %>% 
            unnest(Random_Draws)) %>% mutate(Return = coalesce(Return, Random_Draws)) %>% select(-Random_Draws) %>% spread(Tickers, Return)
return(Q3centered)
```

    ## # A tibble: 3,458 × 89
    ##    date       `ABG SJ Equity` `ACL SJ Equity` `AEG SJ Equity` `AGL SJ Equity`
    ##    <date>               <dbl>           <dbl>           <dbl>           <dbl>
    ##  1 2008-01-02       -0.000524        0.0257           0.00784        0.00996 
    ##  2 2008-01-03       -0.0185         -0.000625         0.00291       -0.0117  
    ##  3 2008-01-04       -0.0115          0.00438         -0.0183        -0.00240 
    ##  4 2008-01-07       -0.0171         -0.00347         -0.0221        -0.0272  
    ##  5 2008-01-08        0.0192          0.0197           0.0175        -0.00555 
    ##  6 2008-01-09       -0.00987         0.0159          -0.0231        -0.0356  
    ##  7 2008-01-10       -0.0128         -0.0260          -0.0428        -0.0237  
    ##  8 2008-01-11       -0.0174         -0.0227          -0.0440         0.00470 
    ##  9 2008-01-14        0.0281          0.0363           0.00398        0.0157  
    ## 10 2008-01-15       -0.0144          0.00708         -0.0291        -0.000591
    ## # … with 3,448 more rows, and 84 more variables: AMS SJ Equity <dbl>,
    ## #   ANG SJ Equity <dbl>, APN SJ Equity <dbl>, ARI SJ Equity <dbl>,
    ## #   ASR SJ Equity <dbl>, AXL SJ Equity <dbl>, BAT SJ Equity <dbl>,
    ## #   BAW SJ Equity <dbl>, BHP SJ Equity <dbl>, BID SJ Equity <dbl>,
    ## #   BTI SJ Equity <dbl>, BVT SJ Equity <dbl>, CCO SJ Equity <dbl>,
    ## #   CFR SJ Equity <dbl>, CLS SJ Equity <dbl>, CPI SJ Equity <dbl>,
    ## #   DSY SJ Equity <dbl>, EXX SJ Equity <dbl>, FFA SJ Equity <dbl>, …
…
